{
    meta: {
        createdAt: '2019-05-20T15:34:08.691Z',
        host: 'http://localhost:3000',
    },
    req: {
        url: '/get',
        method: 'GET',
        headers: {
            connection: 'keep-alive',
            accept: 'application/json, text/plain, */*',
            origin: 'null',
            'user-agent': 'Mozilla/5.0 (X11; Linux x86_64) AppleWebKit/537.36 (KHTML, like Gecko) Chrome/72.0.3626.96 Safari/537.36',
            'accept-encoding': 'gzip, deflate, br',
            'accept-language': 'en-US,en;q=0.9',
            'if-none-match': 'W/"c-EpcloJnJNlLQD+QTU20viTmCdVE"',
        },
        body: '',
    },
    res: {
        status: 304,
        headers: {
            'x-powered-by': [
                'Express',
            ],
            'access-control-allow-origin': [
                '*',
            ],
            etag: [
                'W/"c-EpcloJnJNlLQD+QTU20viTmCdVE"',
            ],
            date: [
                'Mon, 20 May 2019 15:34:08 GMT',
            ],
            connection: [
                'keep-alive',
            ],
        },
        body: '',
    },
}