{
    meta: {
        createdAt: '2019-05-20T15:34:13.978Z',
        host: 'http://localhost:3000',
    },
    req: {
        url: '/delete',
        method: 'OPTIONS',
        headers: {
            connection: 'keep-alive',
            origin: 'null',
            'access-control-request-method': 'DELETE',
            'user-agent': 'Mozilla/5.0 (X11; Linux x86_64) AppleWebKit/537.36 (KHTML, like Gecko) Chrome/72.0.3626.96 Safari/537.36',
            accept: '*/*',
            'accept-encoding': 'gzip, deflate, br',
            'accept-language': 'en-US,en;q=0.9',
        },
        body: '',
    },
    res: {
        status: 204,
        headers: {
            'x-powered-by': [
                'Express',
            ],
            'access-control-allow-origin': [
                '*',
            ],
            'access-control-allow-methods': [
                'GET,HEAD,PUT,PATCH,POST,DELETE',
            ],
            vary: [
                'Access-Control-Request-Headers',
            ],
            'content-length': [
                '0',
            ],
            date: [
                'Mon, 20 May 2019 15:34:13 GMT',
            ],
            connection: [
                'keep-alive',
            ],
        },
        body: '',
    },
}