{
    meta: {
        createdAt: '2019-05-20T15:34:13.980Z',
        host: 'http://localhost:3000',
        resHumanReadable: true,
    },
    req: {
        url: '/delete',
        method: 'DELETE',
        headers: {
            connection: 'keep-alive',
            accept: 'application/json, text/plain, */*',
            origin: 'null',
            'user-agent': 'Mozilla/5.0 (X11; Linux x86_64) AppleWebKit/537.36 (KHTML, like Gecko) Chrome/72.0.3626.96 Safari/537.36',
            'accept-encoding': 'gzip, deflate, br',
            'accept-language': 'en-US,en;q=0.9',
        },
        body: '',
    },
    res: {
        status: 200,
        headers: {
            'x-powered-by': [
                'Express',
            ],
            'access-control-allow-origin': [
                '*',
            ],
            'content-type': [
                'text/html; charset=utf-8',
            ],
            'content-length': [
                '15',
            ],
            etag: [
                'W/"f-kfOelWMlKyZ3Xo47B3La3+Gonl8"',
            ],
            date: [
                'Mon, 20 May 2019 15:34:13 GMT',
            ],
            connection: [
                'keep-alive',
            ],
        },
        body: 'DELETE request!',
    },
}