\relax 
\@writefile{toc}{\contentsline {section}{\numberline {1}Vegetables}{1}}
\@writefile{toc}{\contentsline {subsection}{\numberline {1.1}Green Beans}{1}}
\@writefile{toc}{\contentsline {subsection}{\numberline {1.2}Carrots}{2}}
\@writefile{toc}{\contentsline {subsection}{\numberline {1.3}Celery}{2}}
\@writefile{toc}{\contentsline {section}{\numberline {2}Fruit}{2}}
\@writefile{toc}{\contentsline {subsection}{\numberline {2.1}Apples}{2}}
\@writefile{toc}{\contentsline {subsection}{\numberline {2.2}Grapes}{2}}
\@writefile{toc}{\contentsline {subsection}{\numberline {2.3}Oranges}{2}}
